archivoFinal_ImpAmelia_con2020_MICE
…
# 2. Ver el resultado (puedes filtrar por un año específico para chequear)
print(df_rankings)

# A tibble: 171 × 4
   CCAA   Year Score  Rank
   <chr> <dbl> <dbl> <int>
 1 ES-PV  2016  53.3     1
 2 ES-MC  2016  51.9     2
 3 ES-EX  2016  49.4     3
 4 ES-CE  2016  46.3     4
 5 ES-GA  2016  46.0     5
 6 ES-CN  2016  45.6     6
 7 ES-AR  2016  42.6     7
 8 ES-CL  2016  41.5     8
 9 ES-AN  2016  40.6     9
10 ES-ML  2016  37.5    10
# ℹ 161 more rows

# Opcional: Ver solo el Top 3 de cada año
df_rankings %>% filter(Rank <= 3)

# A tibble: 27 × 4
   CCAA   Year Score  Rank
   <chr> <dbl> <dbl> <int>
 1 ES-PV  2016  53.3     1
 2 ES-MC  2016  51.9     2
 3 ES-EX  2016  49.4     3
 4 ES-CL  2017  63.2     1
 5 ES-EX  2017  56.3     2
 6 ES-CB  2017  51.5     3
 7 ES-CB  2018  60.0     1
 8 ES-AS  2018  53.8     2
 9 ES-GA  2018  52.4     3
10 ES-NC  2019  51.2     1
# ℹ 17 more rows
…
df_ranking_zscore <- df_scores_zscore_amean %>%
  group_by(Time) %>%
  arrange(Time, desc(Score_Zscore_Amean)) %>%
  mutate(Rank = row_number()) %>%
  rename(CCAA = uCode, Year = Time, Score = Score_Zscore_Amean) %>%
  ungroup()

print(df_ranking_zscore)

# A tibble: 171 × 4
   CCAA   Year Score  Rank
   <chr> <dbl> <dbl> <int>
 1 ES-PV  2016  53.3     1
 2 ES-MC  2016  51.9     2
 3 ES-EX  2016  49.4     3
 4 ES-CE  2016  46.3     4
 5 ES-GA  2016  46.0     5
 6 ES-CN  2016  45.6     6
 7 ES-AR  2016  42.6     7
 8 ES-CL  2016  41.5     8
 9 ES-AN  2016  40.6     9
10 ES-ML  2016  37.5    10
# ℹ 161 more rows

df_ranking_zscore %>% filter(Rank <= 3)

# A tibble: 27 × 4
   CCAA   Year Score  Rank
   <chr> <dbl> <dbl> <int>
 1 ES-PV  2016  53.3     1
 2 ES-MC  2016  51.9     2
 3 ES-EX  2016  49.4     3
 4 ES-CL  2017  63.2     1
 5 ES-EX  2017  56.3     2
 6 ES-CB  2017  51.5     3
 7 ES-CB  2018  60.0     1
 8 ES-AS  2018  53.8     2
 9 ES-GA  2018  52.4     3
10 ES-NC  2019  51.2     1
# ℹ 17 more rows
…
