archivoFinal_ImpAmelia_con2020
…
# 2. Ver el resultado (puedes filtrar por un año específico para chequear)
print(df_rankings)

# A tibble: 188 × 4
   CCAA   Year Score  Rank
   <chr> <dbl> <dbl> <int>
 1 ES-CT  2016  37.0     1
 2 ES-PV  2016  34.7     2
 3 ES-IB  2016  34.2     3
 4 ES-CN  2016  34.2     4
 5 ES-AN  2016  30.5     5
 6 ES-GA  2016  30.4     6
 7 ES-VC  2016  29.7     7
 8 ES-AS  2016  28.3     8
 9 ES-EX  2016  27.5     9
10 ES-NC  2016  27.5    10
# ℹ 178 more rows

# Opcional: Ver solo el Top 3 de cada año
df_rankings %>% filter(Rank <= 3)

# A tibble: 30 × 4
   CCAA   Year Score  Rank
   <chr> <dbl> <dbl> <int>
 1 ES-CT  2016  37.0     1
 2 ES-PV  2016  34.7     2
 3 ES-IB  2016  34.2     3
 4 ES-CL  2017  58.9     1
 5 ES-PV  2017  52.2     2
 6 ES-GA  2017  46.0     3
 7 ES-GA  2018  51.6     1
 8 ES-PV  2018  50.8     2
 9 ES-AR  2018  45.6     3
10 ES-NC  2019  52.9     1
# ℹ 20 more rows
…
df_ranking_zscore <- df_scores_zscore_amean %>%
  group_by(Time) %>%
  arrange(Time, desc(Score_Zscore_Amean)) %>%
  mutate(Rank = row_number()) %>%
  rename(CCAA = uCode, Year = Time, Score = Score_Zscore_Amean) %>%
  ungroup()

print(df_ranking_zscore)

# A tibble: 188 × 4
   CCAA   Year Score  Rank
   <chr> <dbl> <dbl> <int>
 1 ES-CT  2016  37.0     1
 2 ES-PV  2016  34.7     2
 3 ES-IB  2016  34.2     3
 4 ES-CN  2016  34.2     4
 5 ES-AN  2016  30.5     5
 6 ES-GA  2016  30.4     6
 7 ES-VC  2016  29.7     7
 8 ES-AS  2016  28.3     8
 9 ES-EX  2016  27.5     9
10 ES-NC  2016  27.5    10
# ℹ 178 more rows

df_ranking_zscore %>% filter(Rank <= 3)

# A tibble: 30 × 4
   CCAA   Year Score  Rank
   <chr> <dbl> <dbl> <int>
 1 ES-CT  2016  37.0     1
 2 ES-PV  2016  34.7     2
 3 ES-IB  2016  34.2     3
 4 ES-CL  2017  58.9     1
 5 ES-PV  2017  52.2     2
 6 ES-GA  2017  46.0     3
 7 ES-GA  2018  51.6     1
 8 ES-PV  2018  50.8     2
 9 ES-AR  2018  45.6     3
10 ES-NC  2019  52.9     1
# ℹ 20 more rows
…
