archivoFinal_tfg
…
# 2. Ver el resultado (puedes filtrar por un año específico para chequear)
print(df_rankings)

# A tibble: 171 × 4
   CCAA   Year Score  Rank
   <chr> <dbl> <dbl> <int>
 1 ES-PV  2016  60.3     1
 2 ES-MC  2016  58.7     2
 3 ES-CT  2016  47.0     3
 4 ES-IB  2016  43.9     4
 5 ES-NC  2016  43.6     5
 6 ES-RI  2016  43.6     6
 7 ES-AN  2016  43.4     7
 8 ES-GA  2016  42.5     8
 9 ES-CM  2016  41.6     9
10 ES-AS  2016  41.2    10
# ℹ 161 more rows

# Opcional: Ver solo el Top 3 de cada año
df_rankings %>% filter(Rank <= 3)

# A tibble: 27 × 4
   CCAA   Year Score  Rank
   <chr> <dbl> <dbl> <int>
 1 ES-PV  2016  60.3     1
 2 ES-MC  2016  58.7     2
 3 ES-CT  2016  47.0     3
 4 ES-CL  2017  68.5     1
 5 ES-AR  2017  62.5     2
 6 ES-PV  2017  59.7     3
 7 ES-PV  2018  56.5     1
 8 ES-AR  2018  55.0     2
 9 ES-NC  2018  53.0     3
10 ES-NC  2019  57.1     1
# ℹ 17 more rows
…
df_ranking_zscore <- df_scores_zscore_amean %>%
  group_by(Time) %>%
  arrange(Time, desc(Score_Zscore_Amean)) %>%
  mutate(Rank = row_number()) %>%
  rename(CCAA = uCode, Year = Time, Score = Score_Zscore_Amean) %>%
  ungroup()

print(df_ranking_zscore)

# A tibble: 171 × 4
   CCAA   Year Score  Rank
   <chr> <dbl> <dbl> <int>
 1 ES-PV  2016  60.3     1
 2 ES-MC  2016  58.7     2
 3 ES-CT  2016  47.0     3
 4 ES-IB  2016  43.9     4
 5 ES-NC  2016  43.6     5
 6 ES-RI  2016  43.6     6
 7 ES-AN  2016  43.4     7
 8 ES-GA  2016  42.5     8
 9 ES-CM  2016  41.6     9
10 ES-AS  2016  41.2    10
# ℹ 161 more rows

df_ranking_zscore %>% filter(Rank <= 3)

# A tibble: 27 × 4
   CCAA   Year Score  Rank
   <chr> <dbl> <dbl> <int>
 1 ES-PV  2016  60.3     1
 2 ES-MC  2016  58.7     2
 3 ES-CT  2016  47.0     3
 4 ES-CL  2017  68.5     1
 5 ES-AR  2017  62.5     2
 6 ES-PV  2017  59.7     3
 7 ES-PV  2018  56.5     1
 8 ES-AR  2018  55.0     2
 9 ES-NC  2018  53.0     3
10 ES-NC  2019  57.1     1
# ℹ 17 more rows
…
